Kennedy J F     	46
Garfield J A    	49
Polk J K        	53
Lincoln A       	56
Arthur C A      	56
Harding W G     	57
McKinley W      	58
Coolidge C      	60
Roosevelt T     	60
Grant U S       	63
Roosevelt F D   	63
Pierce F        	64
Johnson L B     	65
Taylor Z        	65
Johnson A       	66
Washington G    	67
Wilson W        	67
Harrison B      	67
Harrison W H    	68
Hayes R B       	70
Cleveland G     	71
Tyler J         	71
Taft W H        	72
Monroe J        	73
Fillmore M      	74
Buchanan J      	77
Jackson A       	78
Eisenhower D D  	79
Van Buren M     	79
Adams J Q       	80
Jefferson T     	83
Madison J       	85
Truman H S      	88
Hoover H C      	90
Adams J         	90