Lincoln A       	2	2
McKinley W      	2	2
Madison J       	2	2
Roosevelt F D   	4	4
Wilson W        	2	2
Washington G    	2	2
Monroe J        	2	2
Eisenhower D D  	2	2
Jefferson T     	2	2
Nixon R M       	3	3
Cleveland G     	2	2
Jackson A       	2	2
Grant U S       	2	2