Adams J         	1735	4	90	Federalist 	Massachusetts  	3	Adams J         	1797	1800	Adams J         	65	L	Adams J         	Smith A         	28	19	5	1764		
Adams J         	1735	4	90	Federalist 	Massachusetts  	3	Adams J         	1797	1828	Adams J         	83	L	Adams J         	Smith A         	28	19	5	1764		
Adams J         	1735	4	90	Federalist 	Massachusetts  	3	Adams J         	1797	1789	Adams J         	34	L	Adams J         	Smith A         	28	19	5	1764		
Adams J         	1735	4	90	Federalist 	Massachusetts  	3	Adams J         	1797	1792	Adams J         	77	L	Adams J         	Smith A         	28	19	5	1764		
Adams J         	1735	4	90	Federalist 	Massachusetts  	3	Adams J         	1797	1796	Adams J         	71	W	Adams J         	Smith A         	28	19	5	1764		
Adams J Q       	1767	4	80	Demo-Rep   	Massachusetts  	10	Adams J Q       	1825	1820	Adams J Q       	1	L	Adams J Q       	Johnson L C     	30	22	4	1797	Adams J Q       	Walking             
Adams J Q       	1767	4	80	Demo-Rep   	Massachusetts  	10	Adams J Q       	1825	1824	Adams J Q       	84	W	Adams J Q       	Johnson L C     	30	22	4	1797	Adams J Q       	Walking             
Adams J Q       	1767	4	80	Demo-Rep   	Massachusetts  	10	Adams J Q       	1825	1820	Adams J Q       	1	L	Adams J Q       	Johnson L C     	30	22	4	1797	Adams J Q       	Swimming            
Adams J Q       	1767	4	80	Demo-Rep   	Massachusetts  	10	Adams J Q       	1825	1824	Adams J Q       	84	W	Adams J Q       	Johnson L C     	30	22	4	1797	Adams J Q       	Swimming            
Adams J Q       	1767	4	80	Demo-Rep   	Massachusetts  	10	Adams J Q       	1825	1824	Adams J Q       	84	W	Adams J Q       	Johnson L C     	30	22	4	1797	Adams J Q       	Billiards           
Adams J Q       	1767	4	80	Demo-Rep   	Massachusetts  	10	Adams J Q       	1825	1820	Adams J Q       	1	L	Adams J Q       	Johnson L C     	30	22	4	1797	Adams J Q       	Billiards           
Buchanan J      	1791	4	77	Democratic 	Pensylvania    	18	Buchanan J      	1857	1856	Buchanan J      	174	W								
Carter J E      	1924	4		Democratic 	Georgia        	48	Carter J E      	1977	1976	Carter J E      	297	W	Carter J E      	Smith R         	21	18	4	1946		
Cleveland G     	1837	8	71	Democratic 	New Jersey     	25	Cleveland G     	1885	1888	Cleveland G     	168	L	Cleveland G     	Folson F        	49	21	5	1886	Cleveland G     	Fishing             
Cleveland G     	1837	8	71	Democratic 	New Jersey     	25	Cleveland G     	1885	1892	Cleveland G     	277	W	Cleveland G     	Folson F        	49	21	5	1886	Cleveland G     	Fishing             
Cleveland G     	1837	8	71	Democratic 	New Jersey     	27	Cleveland G     	1893	1892	Cleveland G     	277	W	Cleveland G     	Folson F        	49	21	5	1886	Cleveland G     	Fishing             
Cleveland G     	1837	8	71	Democratic 	New Jersey     	25	Cleveland G     	1885	1884	Cleveland G     	219	W	Cleveland G     	Folson F        	49	21	5	1886	Cleveland G     	Fishing             
Cleveland G     	1837	8	71	Democratic 	New Jersey     	27	Cleveland G     	1893	1884	Cleveland G     	219	W	Cleveland G     	Folson F        	49	21	5	1886	Cleveland G     	Fishing             
Cleveland G     	1837	8	71	Democratic 	New Jersey     	27	Cleveland G     	1893	1888	Cleveland G     	168	L	Cleveland G     	Folson F        	49	21	5	1886	Cleveland G     	Fishing             
Coolidge C      	1872	5	60	Republican 	Vermont        	35	Coolidge C      	1925	1924	Coolidge C      	382	W	Coolidge C      	Goodhue G A     	33	26	2	1905	Coolidge C      	Mechanical Horse    
Coolidge C      	1872	5	60	Republican 	Vermont        	34	Coolidge C      	1923	1924	Coolidge C      	382	W	Coolidge C      	Goodhue G A     	33	26	2	1905	Coolidge C      	Indian Clubs        
Coolidge C      	1872	5	60	Republican 	Vermont        	35	Coolidge C      	1925	1924	Coolidge C      	382	W	Coolidge C      	Goodhue G A     	33	26	2	1905	Coolidge C      	Indian Clubs        
Coolidge C      	1872	5	60	Republican 	Vermont        	34	Coolidge C      	1923	1924	Coolidge C      	382	W	Coolidge C      	Goodhue G A     	33	26	2	1905	Coolidge C      	Golf                
Coolidge C      	1872	5	60	Republican 	Vermont        	35	Coolidge C      	1925	1924	Coolidge C      	382	W	Coolidge C      	Goodhue G A     	33	26	2	1905	Coolidge C      	Golf                
Coolidge C      	1872	5	60	Republican 	Vermont        	34	Coolidge C      	1923	1924	Coolidge C      	382	W	Coolidge C      	Goodhue G A     	33	26	2	1905	Coolidge C      	Fishing             
Coolidge C      	1872	5	60	Republican 	Vermont        	35	Coolidge C      	1925	1924	Coolidge C      	382	W	Coolidge C      	Goodhue G A     	33	26	2	1905	Coolidge C      	Fishing             
Coolidge C      	1872	5	60	Republican 	Vermont        	34	Coolidge C      	1923	1924	Coolidge C      	382	W	Coolidge C      	Goodhue G A     	33	26	2	1905	Coolidge C      	Pitching Hay        
Coolidge C      	1872	5	60	Republican 	Vermont        	35	Coolidge C      	1925	1924	Coolidge C      	382	W	Coolidge C      	Goodhue G A     	33	26	2	1905	Coolidge C      	Pitching Hay        
Coolidge C      	1872	5	60	Republican 	Vermont        	34	Coolidge C      	1923	1924	Coolidge C      	382	W	Coolidge C      	Goodhue G A     	33	26	2	1905	Coolidge C      	Mechanical Horse    
Eisenhower D D  	1890	8	79	Republican 	Texas          	43	Eisenhower D D  	1957	1956	Eisenhower D D  	457	W	Eisenhower D D  	Doud G          	25	19	2	1916	Eisenhower D D  	Golf                
Eisenhower D D  	1890	8	79	Republican 	Texas          	42	Eisenhower D D  	1953	1956	Eisenhower D D  	457	W	Eisenhower D D  	Doud G          	25	19	2	1916	Eisenhower D D  	Golf                
Eisenhower D D  	1890	8	79	Republican 	Texas          	43	Eisenhower D D  	1957	1952	Eisenhower D D  	442	W	Eisenhower D D  	Doud G          	25	19	2	1916	Eisenhower D D  	Golf                
Eisenhower D D  	1890	8	79	Republican 	Texas          	42	Eisenhower D D  	1953	1952	Eisenhower D D  	442	W	Eisenhower D D  	Doud G          	25	19	2	1916	Eisenhower D D  	Golf                
Eisenhower D D  	1890	8	79	Republican 	Texas          	43	Eisenhower D D  	1957	1956	Eisenhower D D  	457	W	Eisenhower D D  	Doud G          	25	19	2	1916	Eisenhower D D  	Hunting             
Eisenhower D D  	1890	8	79	Republican 	Texas          	42	Eisenhower D D  	1953	1956	Eisenhower D D  	457	W	Eisenhower D D  	Doud G          	25	19	2	1916	Eisenhower D D  	Hunting             
Eisenhower D D  	1890	8	79	Republican 	Texas          	43	Eisenhower D D  	1957	1952	Eisenhower D D  	442	W	Eisenhower D D  	Doud G          	25	19	2	1916	Eisenhower D D  	Hunting             
Eisenhower D D  	1890	8	79	Republican 	Texas          	42	Eisenhower D D  	1953	1952	Eisenhower D D  	442	W	Eisenhower D D  	Doud G          	25	19	2	1916	Eisenhower D D  	Hunting             
Eisenhower D D  	1890	8	79	Republican 	Texas          	43	Eisenhower D D  	1957	1956	Eisenhower D D  	457	W	Eisenhower D D  	Doud G          	25	19	2	1916	Eisenhower D D  	Painting            
Eisenhower D D  	1890	8	79	Republican 	Texas          	42	Eisenhower D D  	1953	1956	Eisenhower D D  	457	W	Eisenhower D D  	Doud G          	25	19	2	1916	Eisenhower D D  	Painting            
Eisenhower D D  	1890	8	79	Republican 	Texas          	43	Eisenhower D D  	1957	1952	Eisenhower D D  	442	W	Eisenhower D D  	Doud G          	25	19	2	1916	Eisenhower D D  	Painting            
Eisenhower D D  	1890	8	79	Republican 	Texas          	42	Eisenhower D D  	1953	1952	Eisenhower D D  	442	W	Eisenhower D D  	Doud G          	25	19	2	1916	Eisenhower D D  	Painting            
Eisenhower D D  	1890	8	79	Republican 	Texas          	43	Eisenhower D D  	1957	1956	Eisenhower D D  	457	W	Eisenhower D D  	Doud G          	25	19	2	1916	Eisenhower D D  	Fishing             
Eisenhower D D  	1890	8	79	Republican 	Texas          	42	Eisenhower D D  	1953	1956	Eisenhower D D  	457	W	Eisenhower D D  	Doud G          	25	19	2	1916	Eisenhower D D  	Fishing             
Eisenhower D D  	1890	8	79	Republican 	Texas          	43	Eisenhower D D  	1957	1952	Eisenhower D D  	442	W	Eisenhower D D  	Doud G          	25	19	2	1916	Eisenhower D D  	Fishing             
Eisenhower D D  	1890	8	79	Republican 	Texas          	42	Eisenhower D D  	1953	1952	Eisenhower D D  	442	W	Eisenhower D D  	Doud G          	25	19	2	1916	Eisenhower D D  	Fishing             
Eisenhower D D  	1890	8	79	Republican 	Texas          	43	Eisenhower D D  	1957	1956	Eisenhower D D  	457	W	Eisenhower D D  	Doud G          	25	19	2	1916	Eisenhower D D  	Bridge              
Eisenhower D D  	1890	8	79	Republican 	Texas          	42	Eisenhower D D  	1953	1956	Eisenhower D D  	457	W	Eisenhower D D  	Doud G          	25	19	2	1916	Eisenhower D D  	Bridge              
Eisenhower D D  	1890	8	79	Republican 	Texas          	43	Eisenhower D D  	1957	1952	Eisenhower D D  	442	W	Eisenhower D D  	Doud G          	25	19	2	1916	Eisenhower D D  	Bridge              
Eisenhower D D  	1890	8	79	Republican 	Texas          	42	Eisenhower D D  	1953	1952	Eisenhower D D  	442	W	Eisenhower D D  	Doud G          	25	19	2	1916	Eisenhower D D  	Bridge              
Fillmore M      	1800	2	74	Whig       	New York       	16	Fillmore M      	1850	1856	Fillmore M      	8	L	Fillmore M      	Powers A        	26	27	2	1826		
Fillmore M      	1800	2	74	Whig       	New York       	16	Fillmore M      	1850	1856	Fillmore M      	8	L	Fillmore M      	McIntosh C C    	58	44	0	1858		
Ford G R        	1913	2		Republican 	Nebraska       	47	Ford G R        	1974	1976	Ford G R        	240	L	Ford G R        	Warren E B      	35	30	4	1948		
Garfield J A    	1831	0	49	Republican 	Ohio           	24	Garfield J A    	1881	1880	Garfield J A    	214	W	Garfield J A    	Rudolph L       	26	26	7	1858	Garfield J A    	Billiards           
Grant U S       	1822	8	63	Republican 	Ohio           	21	Grant U S       	1869	1868	Grant U S       	214	W	Grant U S       	Dent J B        	26	22	4	1848		
Grant U S       	1822	8	63	Republican 	Ohio           	22	Grant U S       	1873	1872	Grant U S       	286	W	Grant U S       	Dent J B        	26	22	4	1848		
Grant U S       	1822	8	63	Republican 	Ohio           	21	Grant U S       	1869	1872	Grant U S       	286	W	Grant U S       	Dent J B        	26	22	4	1848		
Grant U S       	1822	8	63	Republican 	Ohio           	22	Grant U S       	1873	1868	Grant U S       	214	W	Grant U S       	Dent J B        	26	22	4	1848		
Harding W G     	1865	2	57	Republican 	Ohio           	34	Harding W G     	1921	1920	Harding W G     	404	W	Harding W G     	De Wolfe F K    	25	30	0	1891	Harding W G     	Poker               
Harding W G     	1865	2	57	Republican 	Ohio           	34	Harding W G     	1921	1920	Harding W G     	404	W	Harding W G     	De Wolfe F K    	25	30	0	1891	Harding W G     	Riding              
Harding W G     	1865	2	57	Republican 	Ohio           	34	Harding W G     	1921	1920	Harding W G     	404	W	Harding W G     	De Wolfe F K    	25	30	0	1891	Harding W G     	Golf                
Harrison B      	1833	4	67	Republican 	Ohio           	26	Harrison B      	1889	1892	Harrison B      	145	L	Harrison B      	Scott C L       	20	21	2	1853	Harrison B      	Hunting             
Harrison B      	1833	4	67	Republican 	Ohio           	26	Harrison B      	1889	1888	Harrison B      	233	W	Harrison B      	Scott C L       	20	21	2	1853	Harrison B      	Hunting             
Harrison B      	1833	4	67	Republican 	Ohio           	26	Harrison B      	1889	1888	Harrison B      	233	W	Harrison B      	Dimmick M S L   	62	37	1	1896	Harrison B      	Hunting             
Harrison B      	1833	4	67	Republican 	Ohio           	26	Harrison B      	1889	1892	Harrison B      	145	L	Harrison B      	Dimmick M S L   	62	37	1	1896	Harrison B      	Hunting             
Harrison W H    	1773	0	68	Whig       	Virginia       	14	Harrison W H    	1841	1840	Harrison W H    	234	W	Harrison W H    	Symmes A T      	22	20	10	1795		
Harrison W H    	1773	0	68	Whig       	Virginia       	14	Harrison W H    	1841	1836	Harrison W H    	73	L	Harrison W H    	Symmes A T      	22	20	10	1795		
Hayes R B       	1822	4	70	Republican 	Ohio           	23	Hayes R B       	1877	1876	Hayes R B       	185	W	Hayes R B       	Webb L W        	30	21	8	1852	Hayes R B       	Driving             
Hayes R B       	1822	4	70	Republican 	Ohio           	23	Hayes R B       	1877	1876	Hayes R B       	185	W	Hayes R B       	Webb L W        	30	21	8	1852	Hayes R B       	Croquet             
Hayes R B       	1822	4	70	Republican 	Ohio           	23	Hayes R B       	1877	1876	Hayes R B       	185	W	Hayes R B       	Webb L W        	30	21	8	1852	Hayes R B       	Shooting            
Hoover H C      	1874	4	90	Republican 	Iowa           	36	Hoover H C      	1929	1928	Hoover H C      	444	W	Hoover H C      	Henry L         	24	23	2	1899	Hoover H C      	Medicine Ball       
Hoover H C      	1874	4	90	Republican 	Iowa           	36	Hoover H C      	1929	1932	Hoover H C      	59	L	Hoover H C      	Henry L         	24	23	2	1899	Hoover H C      	Fishing             
Hoover H C      	1874	4	90	Republican 	Iowa           	36	Hoover H C      	1929	1932	Hoover H C      	59	L	Hoover H C      	Henry L         	24	23	2	1899	Hoover H C      	Medicine Ball       
Hoover H C      	1874	4	90	Republican 	Iowa           	36	Hoover H C      	1929	1928	Hoover H C      	444	W	Hoover H C      	Henry L         	24	23	2	1899	Hoover H C      	Fishing             
Jackson A       	1767	8	78	Democratic 	South Carolina 	12	Jackson A       	1833	1828	Jackson A       	178	W	Jackson A       	Robards R D     	26	26	0	1794	Jackson A       	Riding              
Jackson A       	1767	8	78	Democratic 	South Carolina 	12	Jackson A       	1833	1832	Jackson A       	219	W	Jackson A       	Robards R D     	26	26	0	1794	Jackson A       	Riding              
Jackson A       	1767	8	78	Democratic 	South Carolina 	11	Jackson A       	1829	1832	Jackson A       	219	W	Jackson A       	Robards R D     	26	26	0	1794	Jackson A       	Riding              
Jackson A       	1767	8	78	Democratic 	South Carolina 	11	Jackson A       	1829	1828	Jackson A       	178	W	Jackson A       	Robards R D     	26	26	0	1794	Jackson A       	Riding              
Jackson A       	1767	8	78	Democratic 	South Carolina 	12	Jackson A       	1833	1824	Jackson A       	99	L	Jackson A       	Robards R D     	26	26	0	1794	Jackson A       	Riding              
Jackson A       	1767	8	78	Democratic 	South Carolina 	11	Jackson A       	1829	1824	Jackson A       	99	L	Jackson A       	Robards R D     	26	26	0	1794	Jackson A       	Riding              
Jefferson T     	1743	8	83	Demo-Rep   	Virginia       	4	Jefferson T     	1801	1800	Jefferson T     	73	W	Jefferson T     	Skelton M W     	28	23	6	1772	Jefferson T     	Riding              
Jefferson T     	1743	8	83	Demo-Rep   	Virginia       	4	Jefferson T     	1801	1796	Jefferson T     	68	L	Jefferson T     	Skelton M W     	28	23	6	1772	Jefferson T     	Riding              
Jefferson T     	1743	8	83	Demo-Rep   	Virginia       	5	Jefferson T     	1805	1792	Jefferson T     	4	L	Jefferson T     	Skelton M W     	28	23	6	1772	Jefferson T     	Riding              
Jefferson T     	1743	8	83	Demo-Rep   	Virginia       	4	Jefferson T     	1801	1792	Jefferson T     	4	L	Jefferson T     	Skelton M W     	28	23	6	1772	Jefferson T     	Riding              
Jefferson T     	1743	8	83	Demo-Rep   	Virginia       	4	Jefferson T     	1801	1792	Jefferson T     	4	L	Jefferson T     	Skelton M W     	28	23	6	1772	Jefferson T     	Fishing             
Jefferson T     	1743	8	83	Demo-Rep   	Virginia       	5	Jefferson T     	1805	1804	Jefferson T     	162	W	Jefferson T     	Skelton M W     	28	23	6	1772	Jefferson T     	Riding              
Jefferson T     	1743	8	83	Demo-Rep   	Virginia       	4	Jefferson T     	1801	1804	Jefferson T     	162	W	Jefferson T     	Skelton M W     	28	23	6	1772	Jefferson T     	Riding              
Jefferson T     	1743	8	83	Demo-Rep   	Virginia       	5	Jefferson T     	1805	1800	Jefferson T     	73	W	Jefferson T     	Skelton M W     	28	23	6	1772	Jefferson T     	Riding              
Jefferson T     	1743	8	83	Demo-Rep   	Virginia       	5	Jefferson T     	1805	1796	Jefferson T     	68	L	Jefferson T     	Skelton M W     	28	23	6	1772	Jefferson T     	Riding              
Jefferson T     	1743	8	83	Demo-Rep   	Virginia       	5	Jefferson T     	1805	1804	Jefferson T     	162	W	Jefferson T     	Skelton M W     	28	23	6	1772	Jefferson T     	Fishing             
Jefferson T     	1743	8	83	Demo-Rep   	Virginia       	4	Jefferson T     	1801	1804	Jefferson T     	162	W	Jefferson T     	Skelton M W     	28	23	6	1772	Jefferson T     	Fishing             
Jefferson T     	1743	8	83	Demo-Rep   	Virginia       	5	Jefferson T     	1805	1800	Jefferson T     	73	W	Jefferson T     	Skelton M W     	28	23	6	1772	Jefferson T     	Fishing             
Jefferson T     	1743	8	83	Demo-Rep   	Virginia       	4	Jefferson T     	1801	1800	Jefferson T     	73	W	Jefferson T     	Skelton M W     	28	23	6	1772	Jefferson T     	Fishing             
Jefferson T     	1743	8	83	Demo-Rep   	Virginia       	5	Jefferson T     	1805	1796	Jefferson T     	68	L	Jefferson T     	Skelton M W     	28	23	6	1772	Jefferson T     	Fishing             
Jefferson T     	1743	8	83	Demo-Rep   	Virginia       	4	Jefferson T     	1801	1796	Jefferson T     	68	L	Jefferson T     	Skelton M W     	28	23	6	1772	Jefferson T     	Fishing             
Jefferson T     	1743	8	83	Demo-Rep   	Virginia       	5	Jefferson T     	1805	1792	Jefferson T     	4	L	Jefferson T     	Skelton M W     	28	23	6	1772	Jefferson T     	Fishing             
Johnson L B     	1908	5	65	Democratic 	Texas          	44	Johnson L B     	1963	1964	Johnson L B     	486	W	Johnson L B     	Taylor C A      	26	21	2	1934	Johnson L B     	Riding              
Johnson L B     	1908	5	65	Democratic 	Texas          	45	Johnson L B     	1965	1964	Johnson L B     	486	W	Johnson L B     	Taylor C A      	26	21	2	1934	Johnson L B     	Riding              
Kennedy J F     	1917	2	46	Democratic 	Massachusetts  	44	Kennedy J F     	1961	1960	Kennedy J F     	303	W	Kennedy J F     	Bouvier J L     	36	24	3	1953	Kennedy J F     	Touch Football      
Kennedy J F     	1917	2	46	Democratic 	Massachusetts  	44	Kennedy J F     	1961	1960	Kennedy J F     	303	W	Kennedy J F     	Bouvier J L     	36	24	3	1953	Kennedy J F     	Sailing             
Kennedy J F     	1917	2	46	Democratic 	Massachusetts  	44	Kennedy J F     	1961	1960	Kennedy J F     	303	W	Kennedy J F     	Bouvier J L     	36	24	3	1953	Kennedy J F     	Swimming            
Lincoln A       	1809	4	56	Republican 	Kentucky       	19	Lincoln A       	1861	1864	Lincoln A       	212	W	Lincoln A       	Todd M          	33	23	4	1842	Lincoln A       	Walking             
Lincoln A       	1809	4	56	Republican 	Kentucky       	20	Lincoln A       	1865	1864	Lincoln A       	212	W	Lincoln A       	Todd M          	33	23	4	1842	Lincoln A       	Walking             
Lincoln A       	1809	4	56	Republican 	Kentucky       	20	Lincoln A       	1865	1860	Lincoln A       	180	W	Lincoln A       	Todd M          	33	23	4	1842	Lincoln A       	Walking             
Lincoln A       	1809	4	56	Republican 	Kentucky       	19	Lincoln A       	1861	1860	Lincoln A       	180	W	Lincoln A       	Todd M          	33	23	4	1842	Lincoln A       	Walking             
Madison J       	1751	8	85	Demo-Rep   	Virginia       	7	Madison J       	1813	1812	Madison J       	128	W	Madison J       	Todd D D P      	43	26	0	1794		
Madison J       	1751	8	85	Demo-Rep   	Virginia       	6	Madison J       	1809	1812	Madison J       	128	W	Madison J       	Todd D D P      	43	26	0	1794		
Madison J       	1751	8	85	Demo-Rep   	Virginia       	7	Madison J       	1813	1808	Madison J       	122	W	Madison J       	Todd D D P      	43	26	0	1794		
Madison J       	1751	8	85	Demo-Rep   	Virginia       	6	Madison J       	1809	1808	Madison J       	122	W	Madison J       	Todd D D P      	43	26	0	1794		
McKinley W      	1843	4	58	Republican 	Ohio           	28	McKinley W      	1897	1896	McKinley W      	271	W	McKinley W      	Saxton I        	27	23	2	1871	McKinley W      	Riding              
McKinley W      	1843	4	58	Republican 	Ohio           	29	McKinley W      	1901	1900	McKinley W      	292	W	McKinley W      	Saxton I        	27	23	2	1871	McKinley W      	Swimming            
McKinley W      	1843	4	58	Republican 	Ohio           	28	McKinley W      	1897	1900	McKinley W      	292	W	McKinley W      	Saxton I        	27	23	2	1871	McKinley W      	Swimming            
McKinley W      	1843	4	58	Republican 	Ohio           	29	McKinley W      	1901	1896	McKinley W      	271	W	McKinley W      	Saxton I        	27	23	2	1871	McKinley W      	Swimming            
McKinley W      	1843	4	58	Republican 	Ohio           	29	McKinley W      	1901	1900	McKinley W      	292	W	McKinley W      	Saxton I        	27	23	2	1871	McKinley W      	Riding              
McKinley W      	1843	4	58	Republican 	Ohio           	28	McKinley W      	1897	1900	McKinley W      	292	W	McKinley W      	Saxton I        	27	23	2	1871	McKinley W      	Riding              
McKinley W      	1843	4	58	Republican 	Ohio           	28	McKinley W      	1897	1896	McKinley W      	271	W	McKinley W      	Saxton I        	27	23	2	1871	McKinley W      	Swimming            
McKinley W      	1843	4	58	Republican 	Ohio           	28	McKinley W      	1897	1896	McKinley W      	271	W	McKinley W      	Saxton I        	27	23	2	1871	McKinley W      	Walking             
McKinley W      	1843	4	58	Republican 	Ohio           	29	McKinley W      	1901	1896	McKinley W      	271	W	McKinley W      	Saxton I        	27	23	2	1871	McKinley W      	Riding              
McKinley W      	1843	4	58	Republican 	Ohio           	29	McKinley W      	1901	1896	McKinley W      	271	W	McKinley W      	Saxton I        	27	23	2	1871	McKinley W      	Walking             
McKinley W      	1843	4	58	Republican 	Ohio           	28	McKinley W      	1897	1900	McKinley W      	292	W	McKinley W      	Saxton I        	27	23	2	1871	McKinley W      	Walking             
McKinley W      	1843	4	58	Republican 	Ohio           	29	McKinley W      	1901	1900	McKinley W      	292	W	McKinley W      	Saxton I        	27	23	2	1871	McKinley W      	Walking             
Monroe J        	1758	8	73	Demo-Rep   	Virginia       	9	Monroe J        	1821	1816	Monroe J        	183	W	Monroe J        	Kortright E     	27	17	3	1786		
Monroe J        	1758	8	73	Demo-Rep   	Virginia       	9	Monroe J        	1821	1820	Monroe J        	231	W	Monroe J        	Kortright E     	27	17	3	1786		
Monroe J        	1758	8	73	Demo-Rep   	Virginia       	8	Monroe J        	1817	1820	Monroe J        	231	W	Monroe J        	Kortright E     	27	17	3	1786		
Monroe J        	1758	8	73	Demo-Rep   	Virginia       	8	Monroe J        	1817	1816	Monroe J        	183	W	Monroe J        	Kortright E     	27	17	3	1786		
Nixon R M       	1913	5		Republican 	California     	47	Nixon R M       	1973	1960	Nixon R M       	219	L	Nixon R M       	Ryan T C        	27	28	2	1940	Nixon R M       	Golf                
Nixon R M       	1913	5		Republican 	California     	47	Nixon R M       	1973	1972	Nixon R M       	520	W	Nixon R M       	Ryan T C        	27	28	2	1940	Nixon R M       	Golf                
Nixon R M       	1913	5		Republican 	California     	46	Nixon R M       	1969	1972	Nixon R M       	520	W	Nixon R M       	Ryan T C        	27	28	2	1940	Nixon R M       	Golf                
Nixon R M       	1913	5		Republican 	California     	47	Nixon R M       	1973	1968	Nixon R M       	301	W	Nixon R M       	Ryan T C        	27	28	2	1940	Nixon R M       	Golf                
Nixon R M       	1913	5		Republican 	California     	46	Nixon R M       	1969	1968	Nixon R M       	301	W	Nixon R M       	Ryan T C        	27	28	2	1940	Nixon R M       	Golf                
Nixon R M       	1913	5		Republican 	California     	46	Nixon R M       	1969	1960	Nixon R M       	219	L	Nixon R M       	Ryan T C        	27	28	2	1940	Nixon R M       	Golf                
Pierce F        	1804	4	64	Democratic 	New Hampshire  	17	Pierce F        	1853	1852	Pierce F        	254	W	Pierce F        	Appleton J M    	29	28	3	1834		
Polk J K        	1795	4	53	Democratic 	North Carolina 	15	Polk J K        	1845	1844	Polk J K        	170	W	Polk J K        	Childress S     	28	20	0	1824		
Roosevelt F D   	1882	12	63	Democratic 	New York       	39	Roosevelt F D   	1941	1944	Roosevelt F D   	432	W	Roosevelt F D   	Roosevelt A E   	23	20	6	1905	Roosevelt F D   	Fishing             
Roosevelt F D   	1882	12	63	Democratic 	New York       	40	Roosevelt F D   	1945	1944	Roosevelt F D   	432	W	Roosevelt F D   	Roosevelt A E   	23	20	6	1905	Roosevelt F D   	Fishing             
Roosevelt F D   	1882	12	63	Democratic 	New York       	38	Roosevelt F D   	1937	1944	Roosevelt F D   	432	W	Roosevelt F D   	Roosevelt A E   	23	20	6	1905	Roosevelt F D   	Fishing             
Roosevelt F D   	1882	12	63	Democratic 	New York       	37	Roosevelt F D   	1933	1944	Roosevelt F D   	432	W	Roosevelt F D   	Roosevelt A E   	23	20	6	1905	Roosevelt F D   	Fishing             
Roosevelt F D   	1882	12	63	Democratic 	New York       	40	Roosevelt F D   	1945	1940	Roosevelt F D   	449	W	Roosevelt F D   	Roosevelt A E   	23	20	6	1905	Roosevelt F D   	Fishing             
Roosevelt F D   	1882	12	63	Democratic 	New York       	39	Roosevelt F D   	1941	1940	Roosevelt F D   	449	W	Roosevelt F D   	Roosevelt A E   	23	20	6	1905	Roosevelt F D   	Fishing             
Roosevelt F D   	1882	12	63	Democratic 	New York       	38	Roosevelt F D   	1937	1940	Roosevelt F D   	449	W	Roosevelt F D   	Roosevelt A E   	23	20	6	1905	Roosevelt F D   	Fishing             
Roosevelt F D   	1882	12	63	Democratic 	New York       	37	Roosevelt F D   	1933	1940	Roosevelt F D   	449	W	Roosevelt F D   	Roosevelt A E   	23	20	6	1905	Roosevelt F D   	Fishing             
Roosevelt F D   	1882	12	63	Democratic 	New York       	40	Roosevelt F D   	1945	1936	Roosevelt F D   	523	W	Roosevelt F D   	Roosevelt A E   	23	20	6	1905	Roosevelt F D   	Fishing             
Roosevelt F D   	1882	12	63	Democratic 	New York       	39	Roosevelt F D   	1941	1936	Roosevelt F D   	523	W	Roosevelt F D   	Roosevelt A E   	23	20	6	1905	Roosevelt F D   	Fishing             
Roosevelt F D   	1882	12	63	Democratic 	New York       	38	Roosevelt F D   	1937	1936	Roosevelt F D   	523	W	Roosevelt F D   	Roosevelt A E   	23	20	6	1905	Roosevelt F D   	Fishing             
Roosevelt F D   	1882	12	63	Democratic 	New York       	37	Roosevelt F D   	1933	1936	Roosevelt F D   	523	W	Roosevelt F D   	Roosevelt A E   	23	20	6	1905	Roosevelt F D   	Fishing             
Roosevelt F D   	1882	12	63	Democratic 	New York       	40	Roosevelt F D   	1945	1932	Roosevelt F D   	472	W	Roosevelt F D   	Roosevelt A E   	23	20	6	1905	Roosevelt F D   	Fishing             
Roosevelt F D   	1882	12	63	Democratic 	New York       	39	Roosevelt F D   	1941	1932	Roosevelt F D   	472	W	Roosevelt F D   	Roosevelt A E   	23	20	6	1905	Roosevelt F D   	Fishing             
Roosevelt F D   	1882	12	63	Democratic 	New York       	38	Roosevelt F D   	1937	1932	Roosevelt F D   	472	W	Roosevelt F D   	Roosevelt A E   	23	20	6	1905	Roosevelt F D   	Fishing             
Roosevelt F D   	1882	12	63	Democratic 	New York       	37	Roosevelt F D   	1933	1932	Roosevelt F D   	472	W	Roosevelt F D   	Roosevelt A E   	23	20	6	1905	Roosevelt F D   	Fishing             
Roosevelt F D   	1882	12	63	Democratic 	New York       	40	Roosevelt F D   	1945	1944	Roosevelt F D   	432	W	Roosevelt F D   	Roosevelt A E   	23	20	6	1905	Roosevelt F D   	Sailing             
Roosevelt F D   	1882	12	63	Democratic 	New York       	39	Roosevelt F D   	1941	1944	Roosevelt F D   	432	W	Roosevelt F D   	Roosevelt A E   	23	20	6	1905	Roosevelt F D   	Sailing             
Roosevelt F D   	1882	12	63	Democratic 	New York       	38	Roosevelt F D   	1937	1944	Roosevelt F D   	432	W	Roosevelt F D   	Roosevelt A E   	23	20	6	1905	Roosevelt F D   	Sailing             
Roosevelt F D   	1882	12	63	Democratic 	New York       	37	Roosevelt F D   	1933	1944	Roosevelt F D   	432	W	Roosevelt F D   	Roosevelt A E   	23	20	6	1905	Roosevelt F D   	Sailing             
Roosevelt F D   	1882	12	63	Democratic 	New York       	40	Roosevelt F D   	1945	1940	Roosevelt F D   	449	W	Roosevelt F D   	Roosevelt A E   	23	20	6	1905	Roosevelt F D   	Sailing             
Roosevelt F D   	1882	12	63	Democratic 	New York       	39	Roosevelt F D   	1941	1940	Roosevelt F D   	449	W	Roosevelt F D   	Roosevelt A E   	23	20	6	1905	Roosevelt F D   	Sailing             
Roosevelt F D   	1882	12	63	Democratic 	New York       	38	Roosevelt F D   	1937	1940	Roosevelt F D   	449	W	Roosevelt F D   	Roosevelt A E   	23	20	6	1905	Roosevelt F D   	Sailing             
Roosevelt F D   	1882	12	63	Democratic 	New York       	37	Roosevelt F D   	1933	1940	Roosevelt F D   	449	W	Roosevelt F D   	Roosevelt A E   	23	20	6	1905	Roosevelt F D   	Sailing             
Roosevelt F D   	1882	12	63	Democratic 	New York       	40	Roosevelt F D   	1945	1936	Roosevelt F D   	523	W	Roosevelt F D   	Roosevelt A E   	23	20	6	1905	Roosevelt F D   	Sailing             
Roosevelt F D   	1882	12	63	Democratic 	New York       	39	Roosevelt F D   	1941	1936	Roosevelt F D   	523	W	Roosevelt F D   	Roosevelt A E   	23	20	6	1905	Roosevelt F D   	Sailing             
Roosevelt F D   	1882	12	63	Democratic 	New York       	38	Roosevelt F D   	1937	1936	Roosevelt F D   	523	W	Roosevelt F D   	Roosevelt A E   	23	20	6	1905	Roosevelt F D   	Sailing             
Roosevelt F D   	1882	12	63	Democratic 	New York       	37	Roosevelt F D   	1933	1936	Roosevelt F D   	523	W	Roosevelt F D   	Roosevelt A E   	23	20	6	1905	Roosevelt F D   	Sailing             
Roosevelt F D   	1882	12	63	Democratic 	New York       	40	Roosevelt F D   	1945	1932	Roosevelt F D   	472	W	Roosevelt F D   	Roosevelt A E   	23	20	6	1905	Roosevelt F D   	Sailing             
Roosevelt F D   	1882	12	63	Democratic 	New York       	39	Roosevelt F D   	1941	1932	Roosevelt F D   	472	W	Roosevelt F D   	Roosevelt A E   	23	20	6	1905	Roosevelt F D   	Sailing             
Roosevelt F D   	1882	12	63	Democratic 	New York       	38	Roosevelt F D   	1937	1932	Roosevelt F D   	472	W	Roosevelt F D   	Roosevelt A E   	23	20	6	1905	Roosevelt F D   	Sailing             
Roosevelt F D   	1882	12	63	Democratic 	New York       	37	Roosevelt F D   	1933	1932	Roosevelt F D   	472	W	Roosevelt F D   	Roosevelt A E   	23	20	6	1905	Roosevelt F D   	Sailing             
Roosevelt F D   	1882	12	63	Democratic 	New York       	40	Roosevelt F D   	1945	1944	Roosevelt F D   	432	W	Roosevelt F D   	Roosevelt A E   	23	20	6	1905	Roosevelt F D   	Swimming            
Roosevelt F D   	1882	12	63	Democratic 	New York       	39	Roosevelt F D   	1941	1944	Roosevelt F D   	432	W	Roosevelt F D   	Roosevelt A E   	23	20	6	1905	Roosevelt F D   	Swimming            
Roosevelt F D   	1882	12	63	Democratic 	New York       	38	Roosevelt F D   	1937	1944	Roosevelt F D   	432	W	Roosevelt F D   	Roosevelt A E   	23	20	6	1905	Roosevelt F D   	Swimming            
Roosevelt F D   	1882	12	63	Democratic 	New York       	37	Roosevelt F D   	1933	1944	Roosevelt F D   	432	W	Roosevelt F D   	Roosevelt A E   	23	20	6	1905	Roosevelt F D   	Swimming            
Roosevelt F D   	1882	12	63	Democratic 	New York       	40	Roosevelt F D   	1945	1940	Roosevelt F D   	449	W	Roosevelt F D   	Roosevelt A E   	23	20	6	1905	Roosevelt F D   	Swimming            
Roosevelt F D   	1882	12	63	Democratic 	New York       	39	Roosevelt F D   	1941	1940	Roosevelt F D   	449	W	Roosevelt F D   	Roosevelt A E   	23	20	6	1905	Roosevelt F D   	Swimming            
Roosevelt F D   	1882	12	63	Democratic 	New York       	38	Roosevelt F D   	1937	1940	Roosevelt F D   	449	W	Roosevelt F D   	Roosevelt A E   	23	20	6	1905	Roosevelt F D   	Swimming            
Roosevelt F D   	1882	12	63	Democratic 	New York       	37	Roosevelt F D   	1933	1940	Roosevelt F D   	449	W	Roosevelt F D   	Roosevelt A E   	23	20	6	1905	Roosevelt F D   	Swimming            
Roosevelt F D   	1882	12	63	Democratic 	New York       	40	Roosevelt F D   	1945	1936	Roosevelt F D   	523	W	Roosevelt F D   	Roosevelt A E   	23	20	6	1905	Roosevelt F D   	Swimming            
Roosevelt F D   	1882	12	63	Democratic 	New York       	39	Roosevelt F D   	1941	1936	Roosevelt F D   	523	W	Roosevelt F D   	Roosevelt A E   	23	20	6	1905	Roosevelt F D   	Swimming            
Roosevelt F D   	1882	12	63	Democratic 	New York       	38	Roosevelt F D   	1937	1936	Roosevelt F D   	523	W	Roosevelt F D   	Roosevelt A E   	23	20	6	1905	Roosevelt F D   	Swimming            
Roosevelt F D   	1882	12	63	Democratic 	New York       	37	Roosevelt F D   	1933	1936	Roosevelt F D   	523	W	Roosevelt F D   	Roosevelt A E   	23	20	6	1905	Roosevelt F D   	Swimming            
Roosevelt F D   	1882	12	63	Democratic 	New York       	40	Roosevelt F D   	1945	1932	Roosevelt F D   	472	W	Roosevelt F D   	Roosevelt A E   	23	20	6	1905	Roosevelt F D   	Swimming            
Roosevelt F D   	1882	12	63	Democratic 	New York       	39	Roosevelt F D   	1941	1932	Roosevelt F D   	472	W	Roosevelt F D   	Roosevelt A E   	23	20	6	1905	Roosevelt F D   	Swimming            
Roosevelt F D   	1882	12	63	Democratic 	New York       	38	Roosevelt F D   	1937	1932	Roosevelt F D   	472	W	Roosevelt F D   	Roosevelt A E   	23	20	6	1905	Roosevelt F D   	Swimming            
Roosevelt F D   	1882	12	63	Democratic 	New York       	37	Roosevelt F D   	1933	1932	Roosevelt F D   	472	W	Roosevelt F D   	Roosevelt A E   	23	20	6	1905	Roosevelt F D   	Swimming            
Roosevelt T     	1858	7	60	Republican 	New York       	30	Roosevelt T     	1905	1904	Roosevelt T     	336	W	Roosevelt T     	Carow E K       	28	25	5	1886	Roosevelt T     	Wrestling           
Roosevelt T     	1858	7	60	Republican 	New York       	29	Roosevelt T     	1901	1912	Roosevelt T     	88	L	Roosevelt T     	Lee A H         	22	19	1	1880	Roosevelt T     	Riding              
Roosevelt T     	1858	7	60	Republican 	New York       	30	Roosevelt T     	1905	1904	Roosevelt T     	336	W	Roosevelt T     	Carow E K       	28	25	5	1886	Roosevelt T     	Riding              
Roosevelt T     	1858	7	60	Republican 	New York       	30	Roosevelt T     	1905	1904	Roosevelt T     	336	W	Roosevelt T     	Lee A H         	22	19	1	1880	Roosevelt T     	Riding              
Roosevelt T     	1858	7	60	Republican 	New York       	29	Roosevelt T     	1901	1904	Roosevelt T     	336	W	Roosevelt T     	Carow E K       	28	25	5	1886	Roosevelt T     	Riding              
Roosevelt T     	1858	7	60	Republican 	New York       	29	Roosevelt T     	1901	1904	Roosevelt T     	336	W	Roosevelt T     	Lee A H         	22	19	1	1880	Roosevelt T     	Riding              
Roosevelt T     	1858	7	60	Republican 	New York       	30	Roosevelt T     	1905	1912	Roosevelt T     	88	L	Roosevelt T     	Carow E K       	28	25	5	1886	Roosevelt T     	Shooting            
Roosevelt T     	1858	7	60	Republican 	New York       	30	Roosevelt T     	1905	1912	Roosevelt T     	88	L	Roosevelt T     	Lee A H         	22	19	1	1880	Roosevelt T     	Shooting            
Roosevelt T     	1858	7	60	Republican 	New York       	29	Roosevelt T     	1901	1912	Roosevelt T     	88	L	Roosevelt T     	Carow E K       	28	25	5	1886	Roosevelt T     	Shooting            
Roosevelt T     	1858	7	60	Republican 	New York       	29	Roosevelt T     	1901	1912	Roosevelt T     	88	L	Roosevelt T     	Lee A H         	22	19	1	1880	Roosevelt T     	Shooting            
Roosevelt T     	1858	7	60	Republican 	New York       	30	Roosevelt T     	1905	1904	Roosevelt T     	336	W	Roosevelt T     	Carow E K       	28	25	5	1886	Roosevelt T     	Shooting            
Roosevelt T     	1858	7	60	Republican 	New York       	30	Roosevelt T     	1905	1904	Roosevelt T     	336	W	Roosevelt T     	Lee A H         	22	19	1	1880	Roosevelt T     	Shooting            
Roosevelt T     	1858	7	60	Republican 	New York       	29	Roosevelt T     	1901	1904	Roosevelt T     	336	W	Roosevelt T     	Carow E K       	28	25	5	1886	Roosevelt T     	Shooting            
Roosevelt T     	1858	7	60	Republican 	New York       	29	Roosevelt T     	1901	1904	Roosevelt T     	336	W	Roosevelt T     	Lee A H         	22	19	1	1880	Roosevelt T     	Shooting            
Roosevelt T     	1858	7	60	Republican 	New York       	30	Roosevelt T     	1905	1912	Roosevelt T     	88	L	Roosevelt T     	Carow E K       	28	25	5	1886	Roosevelt T     	Tennis              
Roosevelt T     	1858	7	60	Republican 	New York       	30	Roosevelt T     	1905	1912	Roosevelt T     	88	L	Roosevelt T     	Lee A H         	22	19	1	1880	Roosevelt T     	Tennis              
Roosevelt T     	1858	7	60	Republican 	New York       	29	Roosevelt T     	1901	1912	Roosevelt T     	88	L	Roosevelt T     	Carow E K       	28	25	5	1886	Roosevelt T     	Tennis              
Roosevelt T     	1858	7	60	Republican 	New York       	29	Roosevelt T     	1901	1912	Roosevelt T     	88	L	Roosevelt T     	Lee A H         	22	19	1	1880	Roosevelt T     	Tennis              
Roosevelt T     	1858	7	60	Republican 	New York       	30	Roosevelt T     	1905	1904	Roosevelt T     	336	W	Roosevelt T     	Carow E K       	28	25	5	1886	Roosevelt T     	Tennis              
Roosevelt T     	1858	7	60	Republican 	New York       	30	Roosevelt T     	1905	1904	Roosevelt T     	336	W	Roosevelt T     	Lee A H         	22	19	1	1880	Roosevelt T     	Tennis              
Roosevelt T     	1858	7	60	Republican 	New York       	29	Roosevelt T     	1901	1904	Roosevelt T     	336	W	Roosevelt T     	Carow E K       	28	25	5	1886	Roosevelt T     	Tennis              
Roosevelt T     	1858	7	60	Republican 	New York       	29	Roosevelt T     	1901	1904	Roosevelt T     	336	W	Roosevelt T     	Lee A H         	22	19	1	1880	Roosevelt T     	Tennis              
Roosevelt T     	1858	7	60	Republican 	New York       	30	Roosevelt T     	1905	1912	Roosevelt T     	88	L	Roosevelt T     	Carow E K       	28	25	5	1886	Roosevelt T     	Wrestling           
Roosevelt T     	1858	7	60	Republican 	New York       	30	Roosevelt T     	1905	1912	Roosevelt T     	88	L	Roosevelt T     	Lee A H         	22	19	1	1880	Roosevelt T     	Wrestling           
Roosevelt T     	1858	7	60	Republican 	New York       	29	Roosevelt T     	1901	1912	Roosevelt T     	88	L	Roosevelt T     	Carow E K       	28	25	5	1886	Roosevelt T     	Wrestling           
Roosevelt T     	1858	7	60	Republican 	New York       	29	Roosevelt T     	1901	1912	Roosevelt T     	88	L	Roosevelt T     	Lee A H         	22	19	1	1880	Roosevelt T     	Wrestling           
Roosevelt T     	1858	7	60	Republican 	New York       	29	Roosevelt T     	1901	1912	Roosevelt T     	88	L	Roosevelt T     	Carow E K       	28	25	5	1886	Roosevelt T     	Riding              
Roosevelt T     	1858	7	60	Republican 	New York       	30	Roosevelt T     	1905	1904	Roosevelt T     	336	W	Roosevelt T     	Lee A H         	22	19	1	1880	Roosevelt T     	Wrestling           
Roosevelt T     	1858	7	60	Republican 	New York       	29	Roosevelt T     	1901	1904	Roosevelt T     	336	W	Roosevelt T     	Carow E K       	28	25	5	1886	Roosevelt T     	Wrestling           
Roosevelt T     	1858	7	60	Republican 	New York       	29	Roosevelt T     	1901	1904	Roosevelt T     	336	W	Roosevelt T     	Lee A H         	22	19	1	1880	Roosevelt T     	Wrestling           
Roosevelt T     	1858	7	60	Republican 	New York       	30	Roosevelt T     	1905	1912	Roosevelt T     	88	L	Roosevelt T     	Lee A H         	22	19	1	1880	Roosevelt T     	Riding              
Roosevelt T     	1858	7	60	Republican 	New York       	30	Roosevelt T     	1905	1912	Roosevelt T     	88	L	Roosevelt T     	Carow E K       	28	25	5	1886	Roosevelt T     	Riding              
Roosevelt T     	1858	7	60	Republican 	New York       	29	Roosevelt T     	1901	1904	Roosevelt T     	336	W	Roosevelt T     	Lee A H         	22	19	1	1880	Roosevelt T     	Jujitsu             
Roosevelt T     	1858	7	60	Republican 	New York       	29	Roosevelt T     	1901	1904	Roosevelt T     	336	W	Roosevelt T     	Carow E K       	28	25	5	1886	Roosevelt T     	Jujitsu             
Roosevelt T     	1858	7	60	Republican 	New York       	30	Roosevelt T     	1905	1904	Roosevelt T     	336	W	Roosevelt T     	Lee A H         	22	19	1	1880	Roosevelt T     	Jujitsu             
Roosevelt T     	1858	7	60	Republican 	New York       	30	Roosevelt T     	1905	1904	Roosevelt T     	336	W	Roosevelt T     	Carow E K       	28	25	5	1886	Roosevelt T     	Jujitsu             
Roosevelt T     	1858	7	60	Republican 	New York       	29	Roosevelt T     	1901	1912	Roosevelt T     	88	L	Roosevelt T     	Lee A H         	22	19	1	1880	Roosevelt T     	Jujitsu             
Roosevelt T     	1858	7	60	Republican 	New York       	29	Roosevelt T     	1901	1912	Roosevelt T     	88	L	Roosevelt T     	Carow E K       	28	25	5	1886	Roosevelt T     	Jujitsu             
Roosevelt T     	1858	7	60	Republican 	New York       	30	Roosevelt T     	1905	1912	Roosevelt T     	88	L	Roosevelt T     	Lee A H         	22	19	1	1880	Roosevelt T     	Jujitsu             
Roosevelt T     	1858	7	60	Republican 	New York       	30	Roosevelt T     	1905	1912	Roosevelt T     	88	L	Roosevelt T     	Carow E K       	28	25	5	1886	Roosevelt T     	Jujitsu             
Roosevelt T     	1858	7	60	Republican 	New York       	29	Roosevelt T     	1901	1904	Roosevelt T     	336	W	Roosevelt T     	Lee A H         	22	19	1	1880	Roosevelt T     	Hunting             
Roosevelt T     	1858	7	60	Republican 	New York       	29	Roosevelt T     	1901	1904	Roosevelt T     	336	W	Roosevelt T     	Carow E K       	28	25	5	1886	Roosevelt T     	Hunting             
Roosevelt T     	1858	7	60	Republican 	New York       	30	Roosevelt T     	1905	1904	Roosevelt T     	336	W	Roosevelt T     	Lee A H         	22	19	1	1880	Roosevelt T     	Hunting             
Roosevelt T     	1858	7	60	Republican 	New York       	30	Roosevelt T     	1905	1904	Roosevelt T     	336	W	Roosevelt T     	Carow E K       	28	25	5	1886	Roosevelt T     	Hunting             
Roosevelt T     	1858	7	60	Republican 	New York       	29	Roosevelt T     	1901	1912	Roosevelt T     	88	L	Roosevelt T     	Lee A H         	22	19	1	1880	Roosevelt T     	Hunting             
Roosevelt T     	1858	7	60	Republican 	New York       	29	Roosevelt T     	1901	1912	Roosevelt T     	88	L	Roosevelt T     	Carow E K       	28	25	5	1886	Roosevelt T     	Hunting             
Roosevelt T     	1858	7	60	Republican 	New York       	30	Roosevelt T     	1905	1912	Roosevelt T     	88	L	Roosevelt T     	Lee A H         	22	19	1	1880	Roosevelt T     	Hunting             
Roosevelt T     	1858	7	60	Republican 	New York       	30	Roosevelt T     	1905	1912	Roosevelt T     	88	L	Roosevelt T     	Carow E K       	28	25	5	1886	Roosevelt T     	Hunting             
Roosevelt T     	1858	7	60	Republican 	New York       	29	Roosevelt T     	1901	1904	Roosevelt T     	336	W	Roosevelt T     	Lee A H         	22	19	1	1880	Roosevelt T     	Boxing              
Roosevelt T     	1858	7	60	Republican 	New York       	29	Roosevelt T     	1901	1904	Roosevelt T     	336	W	Roosevelt T     	Carow E K       	28	25	5	1886	Roosevelt T     	Boxing              
Roosevelt T     	1858	7	60	Republican 	New York       	30	Roosevelt T     	1905	1904	Roosevelt T     	336	W	Roosevelt T     	Lee A H         	22	19	1	1880	Roosevelt T     	Boxing              
Roosevelt T     	1858	7	60	Republican 	New York       	30	Roosevelt T     	1905	1904	Roosevelt T     	336	W	Roosevelt T     	Carow E K       	28	25	5	1886	Roosevelt T     	Boxing              
Roosevelt T     	1858	7	60	Republican 	New York       	29	Roosevelt T     	1901	1912	Roosevelt T     	88	L	Roosevelt T     	Lee A H         	22	19	1	1880	Roosevelt T     	Boxing              
Roosevelt T     	1858	7	60	Republican 	New York       	29	Roosevelt T     	1901	1912	Roosevelt T     	88	L	Roosevelt T     	Carow E K       	28	25	5	1886	Roosevelt T     	Boxing              
Roosevelt T     	1858	7	60	Republican 	New York       	30	Roosevelt T     	1905	1912	Roosevelt T     	88	L	Roosevelt T     	Lee A H         	22	19	1	1880	Roosevelt T     	Boxing              
Roosevelt T     	1858	7	60	Republican 	New York       	30	Roosevelt T     	1905	1912	Roosevelt T     	88	L	Roosevelt T     	Carow E K       	28	25	5	1886	Roosevelt T     	Boxing              
Taft W H        	1857	4	72	Republican 	Ohio           	31	Taft W H        	1909	1912	Taft W H        	8	L	Taft W H        	Herron H        	28	25	3	1886	Taft W H        	Golf                
Taft W H        	1857	4	72	Republican 	Ohio           	31	Taft W H        	1909	1908	Taft W H        	321	W	Taft W H        	Herron H        	28	25	3	1886	Taft W H        	Riding              
Taft W H        	1857	4	72	Republican 	Ohio           	31	Taft W H        	1909	1912	Taft W H        	8	L	Taft W H        	Herron H        	28	25	3	1886	Taft W H        	Riding              
Taft W H        	1857	4	72	Republican 	Ohio           	31	Taft W H        	1909	1908	Taft W H        	321	W	Taft W H        	Herron H        	28	25	3	1886	Taft W H        	Golf                
Taylor Z        	1784	1	65	Whig       	Virginia       	16	Taylor Z        	1849	1848	Taylor Z        	163	W	Taylor Z        	Smith M M       	25	21	6	1810	Taylor Z        	Riding              
Truman H S      	1884	7	88	Democratic 	Missouri       	40	Truman H S      	1945	1948	Truman H S      	303	W	Truman H S      	 Wallace E V    	35	34	1	1919	Truman H S      	Poker               
Truman H S      	1884	7	88	Democratic 	Missouri       	41	Truman H S      	1949	1948	Truman H S      	303	W	Truman H S      	 Wallace E V    	35	34	1	1919	Truman H S      	Poker               
Truman H S      	1884	7	88	Democratic 	Missouri       	40	Truman H S      	1945	1948	Truman H S      	303	W	Truman H S      	 Wallace E V    	35	34	1	1919	Truman H S      	Fishing             
Truman H S      	1884	7	88	Democratic 	Missouri       	41	Truman H S      	1949	1948	Truman H S      	303	W	Truman H S      	 Wallace E V    	35	34	1	1919	Truman H S      	Fishing             
Truman H S      	1884	7	88	Democratic 	Missouri       	40	Truman H S      	1945	1948	Truman H S      	303	W	Truman H S      	 Wallace E V    	35	34	1	1919	Truman H S      	Walking             
Truman H S      	1884	7	88	Democratic 	Missouri       	41	Truman H S      	1949	1948	Truman H S      	303	W	Truman H S      	 Wallace E V    	35	34	1	1919	Truman H S      	Walking             
Van Buren M     	1782	4	79	Democratic 	New York       	13	Van Buren M     	1837	1840	Van Buren M     	60	L	Van Buren M     	Hoes H          	24	23	4	1807	Van Buren M     	Riding              
Van Buren M     	1782	4	79	Democratic 	New York       	13	Van Buren M     	1837	1836	Van Buren M     	170	W	Van Buren M     	Hoes H          	24	23	4	1807	Van Buren M     	Riding              
Washington G    	1732	7	67	Federalist 	Virginia       	2	Washington G    	1793	1796	Washington G    	2	L	Washington G    	Custis M D      	26	27	0	1759	Washington G    	Fishing             
Washington G    	1732	7	67	Federalist 	Virginia       	1	Washington G    	1789	1796	Washington G    	2	L	Washington G    	Custis M D      	26	27	0	1759	Washington G    	Fishing             
Washington G    	1732	7	67	Federalist 	Virginia       	2	Washington G    	1793	1792	Washington G    	132	W	Washington G    	Custis M D      	26	27	0	1759	Washington G    	Fishing             
Washington G    	1732	7	67	Federalist 	Virginia       	1	Washington G    	1789	1792	Washington G    	132	W	Washington G    	Custis M D      	26	27	0	1759	Washington G    	Fishing             
Washington G    	1732	7	67	Federalist 	Virginia       	2	Washington G    	1793	1789	Washington G    	69	W	Washington G    	Custis M D      	26	27	0	1759	Washington G    	Fishing             
Washington G    	1732	7	67	Federalist 	Virginia       	1	Washington G    	1789	1789	Washington G    	69	W	Washington G    	Custis M D      	26	27	0	1759	Washington G    	Fishing             
Washington G    	1732	7	67	Federalist 	Virginia       	2	Washington G    	1793	1796	Washington G    	2	L	Washington G    	Custis M D      	26	27	0	1759	Washington G    	Riding              
Washington G    	1732	7	67	Federalist 	Virginia       	1	Washington G    	1789	1796	Washington G    	2	L	Washington G    	Custis M D      	26	27	0	1759	Washington G    	Riding              
Washington G    	1732	7	67	Federalist 	Virginia       	2	Washington G    	1793	1792	Washington G    	132	W	Washington G    	Custis M D      	26	27	0	1759	Washington G    	Riding              
Washington G    	1732	7	67	Federalist 	Virginia       	1	Washington G    	1789	1792	Washington G    	132	W	Washington G    	Custis M D      	26	27	0	1759	Washington G    	Riding              
Washington G    	1732	7	67	Federalist 	Virginia       	2	Washington G    	1793	1789	Washington G    	69	W	Washington G    	Custis M D      	26	27	0	1759	Washington G    	Riding              
Washington G    	1732	7	67	Federalist 	Virginia       	1	Washington G    	1789	1789	Washington G    	69	W	Washington G    	Custis M D      	26	27	0	1759	Washington G    	Riding              
Wilson W        	1856	8	67	Democratic 	Virginia       	33	Wilson W        	1917	1912	Wilson W        	435	W	Wilson W        	Axson E L       	28	25	3	1885	Wilson W        	Riding              
Wilson W        	1856	8	67	Democratic 	Virginia       	32	Wilson W        	1913	1916	Wilson W        	277	W	Wilson W        	Galt E B        	58	43	0	1915	Wilson W        	Riding              
Wilson W        	1856	8	67	Democratic 	Virginia       	32	Wilson W        	1913	1916	Wilson W        	277	W	Wilson W        	Axson E L       	28	25	3	1885	Wilson W        	Riding              
Wilson W        	1856	8	67	Democratic 	Virginia       	33	Wilson W        	1917	1916	Wilson W        	277	W	Wilson W        	Galt E B        	58	43	0	1915	Wilson W        	Riding              
Wilson W        	1856	8	67	Democratic 	Virginia       	33	Wilson W        	1917	1916	Wilson W        	277	W	Wilson W        	Axson E L       	28	25	3	1885	Wilson W        	Riding              
Wilson W        	1856	8	67	Democratic 	Virginia       	32	Wilson W        	1913	1912	Wilson W        	435	W	Wilson W        	Galt E B        	58	43	0	1915	Wilson W        	Golf                
Wilson W        	1856	8	67	Democratic 	Virginia       	32	Wilson W        	1913	1912	Wilson W        	435	W	Wilson W        	Axson E L       	28	25	3	1885	Wilson W        	Golf                
Wilson W        	1856	8	67	Democratic 	Virginia       	33	Wilson W        	1917	1912	Wilson W        	435	W	Wilson W        	Galt E B        	58	43	0	1915	Wilson W        	Golf                
Wilson W        	1856	8	67	Democratic 	Virginia       	33	Wilson W        	1917	1912	Wilson W        	435	W	Wilson W        	Axson E L       	28	25	3	1885	Wilson W        	Golf                
Wilson W        	1856	8	67	Democratic 	Virginia       	32	Wilson W        	1913	1916	Wilson W        	277	W	Wilson W        	Galt E B        	58	43	0	1915	Wilson W        	Golf                
Wilson W        	1856	8	67	Democratic 	Virginia       	32	Wilson W        	1913	1916	Wilson W        	277	W	Wilson W        	Axson E L       	28	25	3	1885	Wilson W        	Golf                
Wilson W        	1856	8	67	Democratic 	Virginia       	33	Wilson W        	1917	1916	Wilson W        	277	W	Wilson W        	Galt E B        	58	43	0	1915	Wilson W        	Golf                
Wilson W        	1856	8	67	Democratic 	Virginia       	33	Wilson W        	1917	1916	Wilson W        	277	W	Wilson W        	Axson E L       	28	25	3	1885	Wilson W        	Golf                
Wilson W        	1856	8	67	Democratic 	Virginia       	32	Wilson W        	1913	1912	Wilson W        	435	W	Wilson W        	Galt E B        	58	43	0	1915	Wilson W        	Riding              
Wilson W        	1856	8	67	Democratic 	Virginia       	33	Wilson W        	1917	1916	Wilson W        	277	W	Wilson W        	Axson E L       	28	25	3	1885	Wilson W        	Walking             
Wilson W        	1856	8	67	Democratic 	Virginia       	33	Wilson W        	1917	1916	Wilson W        	277	W	Wilson W        	Galt E B        	58	43	0	1915	Wilson W        	Walking             
Wilson W        	1856	8	67	Democratic 	Virginia       	32	Wilson W        	1913	1916	Wilson W        	277	W	Wilson W        	Axson E L       	28	25	3	1885	Wilson W        	Walking             
Wilson W        	1856	8	67	Democratic 	Virginia       	32	Wilson W        	1913	1916	Wilson W        	277	W	Wilson W        	Galt E B        	58	43	0	1915	Wilson W        	Walking             
Wilson W        	1856	8	67	Democratic 	Virginia       	33	Wilson W        	1917	1912	Wilson W        	435	W	Wilson W        	Axson E L       	28	25	3	1885	Wilson W        	Walking             
Wilson W        	1856	8	67	Democratic 	Virginia       	33	Wilson W        	1917	1912	Wilson W        	435	W	Wilson W        	Galt E B        	58	43	0	1915	Wilson W        	Walking             
Wilson W        	1856	8	67	Democratic 	Virginia       	32	Wilson W        	1913	1912	Wilson W        	435	W	Wilson W        	Axson E L       	28	25	3	1885	Wilson W        	Walking             
Wilson W        	1856	8	67	Democratic 	Virginia       	32	Wilson W        	1913	1912	Wilson W        	435	W	Wilson W        	Galt E B        	58	43	0	1915	Wilson W        	Walking             
Wilson W        	1856	8	67	Democratic 	Virginia       	32	Wilson W        	1913	1912	Wilson W        	435	W	Wilson W        	Axson E L       	28	25	3	1885	Wilson W        	Riding              
Wilson W        	1856	8	67	Democratic 	Virginia       	33	Wilson W        	1917	1912	Wilson W        	435	W	Wilson W        	Galt E B        	58	43	0	1915	Wilson W        	Riding              