Lincoln A       	1809	1864
Buchanan J      	1791	1856
McKinley W      	1843	1900
Madison J       	1751	1812
Pierce F        	1804	1852
Roosevelt F D   	1882	1944
Wilson W        	1856	1916
Polk J K        	1795	1844
Washington G    	1732	1792
Kennedy J F     	1917	1960
Hayes R B       	1822	1876
Monroe J        	1758	1820
Eisenhower D D  	1890	1956
Taft W H        	1857	1908
Jefferson T     	1743	1804
Taylor Z        	1784	1848
Adams J Q       	1767	1824
Garfield J A    	1831	1880
Coolidge C      	1872	1924
Nixon R M       	1913	1972
Van Buren M     	1782	1836
Truman H S      	1884	1948
Reagan R        	1911	1980
Harrison B      	1833	1888
Johnson L B     	1908	1964
Harding W G     	1865	1920
Cleveland G     	1837	1892
Adams J         	1735	1796
Roosevelt T     	1858	1904
Jackson A       	1767	1832
Hoover H C      	1874	1928
Harrison W H    	1773	1840
Carter J E      	1924	1976
Grant U S       	1822	1872