Lincoln A       
Buchanan J      
McKinley W      
Madison J       
Pierce F        
Roosevelt F D   
Wilson W        
Polk J K        
Washington G    
Kennedy J F     
Hayes R B       
Ford G R        
Monroe J        
Eisenhower D D  
Taft W H        
Jefferson T     
Taylor Z        
Adams J Q       
Garfield J A    
Coolidge C      
Nixon R M       
Van Buren M     
Truman H S      
Reagan R        
Harrison B      
Johnson L B     
Harding W G     
Cleveland G     
Adams J         
Roosevelt T     
Jackson A       
Hoover H C      
Harrison W H    
Carter J E      
Grant U S       